…
    ## -- Column specification --------------------------------------------------------
    ## Delimiter: ","
    ## chr (1): mon
    ## dbl (8): prez_gop, gov_gop, sen_gop, rep_gop, prez_dem, gov_dem, sen_dem, re...

    ## 
    ## i Use `spec()` to retrieve the full column specification for this data.
    ## i Specify the column types or set `show_col_types = FALSE` to quiet this message.

``` r
pols_month
```

    ## # A tibble: 817 x 9
    ##     year month     gov_gop sen_gop rep_gop gov_dem sen_dem rep_dem president
    ##    <int> <chr>       <dbl>   <dbl>   <dbl>   <dbl>   <dbl>   <dbl> <chr>    
    ##  1  1947 January        23      51     253      23      45     198 dem      
    ##  2  1947 February       23      51     253      23      45     198 dem      
    ##  3  1947 March          23      51     253      23      45     198 dem      
    ##  4  1947 April          23      51     253      23      45     198 dem      
    ##  5  1947 May            23      51     253      23      45     198 dem      
    ##  6  1947 June           23      51     253      23      45     198 dem      
    ##  7  1947 July           23      51     253      23      45     198 dem      
    ##  8  1947 August         23      51     253      23      45     198 dem      
    ##  9  1947 September      23      51     253      23      45     198 dem      
    ## 10  1947 October        23      51     253      23      45     198 dem      
    ## # ... with 807 more rows
…
    ## -- Column specification --------------------------------------------------------
    ## Delimiter: ","
    ## chr (1): date
    ## dbl (1): close

    ## 
    ## i Use `spec()` to retrieve the full column specification for this data.
    ## i Specify the column types or set `show_col_types = FALSE` to quiet this message.

``` r
snp_data
```

    ## # A tibble: 787 x 3
    ##     year month     close
    ##    <dbl> <chr>     <dbl>
    ##  1  1950 January    17.0
    ##  2  1950 February   17.2
    ##  3  1950 March      17.3
    ##  4  1950 April      18.0
    ##  5  1950 May        18.8
    ##  6  1950 June       17.7
    ##  7  1950 July       17.8
    ##  8  1950 August     18.4
    ##  9  1950 September  19.5
    ## 10  1950 October    19.5
    ## # ... with 777 more rows
…
unemployment_data
```

    ## # A tibble: 816 x 3
    ##     year month     perc_unemployment
    ##    <dbl> <chr>                 <dbl>
    ##  1  1948 January                 3.4
    ##  2  1948 February                3.8
    ##  3  1948 March                   4  
    ##  4  1948 April                   3.9
    ##  5  1948 May                     3.5
    ##  6  1948 June                    3.6
    ##  7  1948 July                    3.6
    ##  8  1948 August                  3.9
    ##  9  1948 September               3.8
    ## 10  1948 October                 3.7
    ## # ... with 806 more rows

Join the dataset

``` r
pols_snp_data = 
  left_join(pols_month, snp_data, by = c("year","month"))

pols_snp_unem_data = left_join(pols_month, unemployment_data, by = c("year","month"))

pols_snp_unem_data
```

    ## # A tibble: 817 x 10
    ##     year month     gov_gop sen_gop rep_gop gov_dem sen_dem rep_dem president
    ##    <dbl> <chr>       <dbl>   <dbl>   <dbl>   <dbl>   <dbl>   <dbl> <chr>    
    ##  1  1947 January        23      51     253      23      45     198 dem      
    ##  2  1947 February       23      51     253      23      45     198 dem      
    ##  3  1947 March          23      51     253      23      45     198 dem      
    ##  4  1947 April          23      51     253      23      45     198 dem      
    ##  5  1947 May            23      51     253      23      45     198 dem      
    ##  6  1947 June           23      51     253      23      45     198 dem      
    ##  7  1947 July           23      51     253      23      45     198 dem      
    ##  8  1947 August         23      51     253      23      45     198 dem      
    ##  9  1947 September      23      51     253      23      45     198 dem      
    ## 10  1947 October        23      51     253      23      45     198 dem      
    ## # ... with 807 more rows, and 1 more variable: perc_unemployment <dbl>
…
    ## -- Column specification --------------------------------------------------------
    ## Delimiter: ","
    ## chr (3): Gender, Ethnicity, Child's First Name
    ## dbl (3): Year of Birth, Count, Rank

    ## 
    ## i Use `spec()` to retrieve the full column specification for this data.
    ## i Specify the column types or set `show_col_types = FALSE` to quiet this message.

``` r
pop_baby_names
```

    ## # A tibble: 12,181 x 6
    ##    year_of_birth gender ethnicity         childs_first_name count  rank
    ##            <dbl> <chr>  <chr>             <chr>             <dbl> <dbl>
    ##  1          2016 female asian_and_pacific Olivia              172     1
    ##  2          2016 female asian_and_pacific Chloe               112     2
    ##  3          2016 female asian_and_pacific Sophia              104     3
    ##  4          2016 female asian_and_pacific Emily                99     4
    ##  5          2016 female asian_and_pacific Emma                 99     4
    ##  6          2016 female asian_and_pacific Mia                  79     5
    ##  7          2016 female asian_and_pacific Charlotte            59     6
    ##  8          2016 female asian_and_pacific Sarah                57     7
    ##  9          2016 female asian_and_pacific Isabella             56     8
    ## 10          2016 female asian_and_pacific Hannah               56     8
    ## # ... with 12,171 more rows
Produce a table showing the rank in popularity of the name “Olivia” as a
female baby name over time.

``` r
Olivia_df = 
  pop_baby_names %>% 
  filter(childs_first_name == "Olivia") %>% 
  filter(gender == "female") %>% 
  select(year_of_birth, ethnicity, rank) %>% 
  arrange(year_of_birth,ethnicity)

Olivia_df
```

    ## # A tibble: 24 x 3
    ##    year_of_birth ethnicity          rank
    ##            <dbl> <chr>             <dbl>
    ##  1          2011 asian_and_pacific     4
    ##  2          2011 black_non_hisp       10
    ##  3          2011 hispanic             18
    ##  4          2011 white_non_hisp        2
    ##  5          2012 asian_and_paci        3
    ##  6          2012 black_non_hisp        8
    ##  7          2012 hispanic             22
    ##  8          2012 white_non_hisp        4
    ##  9          2013 asian_and_pacific     3
    ## 10          2013 black_non_hisp        6
    ## # ... with 14 more rows

Produce a similar table showing the most popular name among male
children.

``` r
pop_male_names = 
  filter(pop_baby_names, gender == "male", rank == "1") %>%
  select(year_of_birth, ethnicity, childs_first_name) %>% 
  arrange(year_of_birth, ethnicity) %>% 
  rename(most_pop_male_name = childs_first_name)

pop_male_names
```

    ## # A tibble: 24 x 3
    ##    year_of_birth ethnicity         most_pop_male_name
    ##            <dbl> <chr>             <chr>             
    ##  1          2011 asian_and_pacific Ethan             
    ##  2          2011 black_non_hisp    Jayden            
    ##  3          2011 hispanic          Jayden            
    ##  4          2011 white_non_hisp    Michael           
    ##  5          2012 asian_and_paci    Ryan              
    ##  6          2012 black_non_hisp    Jayden            
    ##  7          2012 hispanic          Jayden            
    ##  8          2012 white_non_hisp    Joseph            
    ##  9          2013 asian_and_pacific Jayden            
    ## 10          2013 black_non_hisp    Ethan             
    ## # ... with 14 more rows
…
